…
#### 2.a. Calculate the Mean, Total Steps for each day

```r
meanPerDay = activityData %>% na.omit() %>% group_by(ymd(date)) %>% summarize(meanSteps=mean(steps), totalSteps = sum(steps))
```

#### 2.b. Print the calculated data and plot the Total Steps per Day

```r
print(meanPerDay)
```

```
## # A tibble: 53 x 3
##    `ymd(date)` meanSteps totalSteps
##    <date>          <dbl>      <int>
##  1 2012-10-02      0.438        126
##  2 2012-10-03     39.4        11352
##  3 2012-10-04     42.1        12116
##  4 2012-10-05     46.2        13294
##  5 2012-10-06     53.5        15420
##  6 2012-10-07     38.2        11015
##  7 2012-10-09     44.5        12811
##  8 2012-10-10     34.4         9900
##  9 2012-10-11     35.8        10304
## 10 2012-10-12     60.4        17382
## # ... with 43 more rows
```
…
#### 3.a. Calculate the AVergae Daily Activity (Steps)

```r
meanPerInterval = activityData %>% na.omit() %>% group_by(interval) %>% summarize(meanSteps=mean(steps), totalSteps=sum(steps))
print(meanPerInterval)
```

```
## # A tibble: 288 x 3
##    interval meanSteps totalSteps
##       <int>     <dbl>      <int>
##  1        0    1.72           91
##  2        5    0.340          18
##  3       10    0.132           7
##  4       15    0.151           8
##  5       20    0.0755          4
##  6       25    2.09          111
##  7       30    0.528          28
##  8       35    0.868          46
##  9       40    0.              0
## 10       45    1.47           78
## # ... with 278 more rows
```
…
#### 4.c. Print the calculated data and plot the Total Steps per Day

```r
newMeanPerDay = newActivityData %>% group_by(ymd(date)) %>% summarize(newMeanSteps=mean(steps), newTotalSteps = sum(steps))
print(newMeanPerDay)
```

```
## # A tibble: 61 x 3
##    `ymd(date)` newMeanSteps newTotalSteps
##    <date>             <dbl>         <dbl>
##  1 2012-10-01        37.4          10766.
##  2 2012-10-02         0.438          126.
##  3 2012-10-03        39.4          11352.
##  4 2012-10-04        42.1          12116.
##  5 2012-10-05        46.2          13294.
##  6 2012-10-06        53.5          15420.
##  7 2012-10-07        38.2          11015.
##  8 2012-10-08        37.4          10766.
##  9 2012-10-09        44.5          12811.
## 10 2012-10-10        34.4           9900.
## # ... with 51 more rows
```
…
